Test DVC
…
We will create a simple recipe to clean the data a bit.

housing_rec <- 
    recipe(SalePrice ~ PID + `Lot Area` +`Year Built` + `Total Bsmt SF` + `Full Bath` + `Half Bath` + Fireplaces + `Garage Cars`, data = housing_train) %>% 
  update_role(PID, new_role = "ID") %>% 
  step_dummy(all_nominal()) %>%  
  step_meanimpute(all_numeric()) %>% 
  step_zv(all_predictors()) %>% 
  step_nzv(all_predictors())

housing_rec %>% 
  prep() %>% 
  bake(housing_train)

## # A tibble: 2,198 x 8
##    `Lot Area` `Year Built` `Total Bsmt SF` `Full Bath` `Half Bath` Fireplaces
##         <dbl>        <dbl>           <dbl>       <dbl>       <dbl>      <dbl>
##  1      31770         1960            1080           1           0          2
##  2      11622         1961             882           1           0          0
##  3      14267         1958            1329           1           1          0
##  4       5005         1992            1280           2           0          0
##  5       5389         1995            1595           2           0          1
##  6      10000         1993             763           2           1          1
##  7       7980         1992            1168           2           0          0
##  8      10176         1990            1300           1           1          1
##  9       6820         1985            1488           1           1          0
## 10      53504         2003            1650           3           1          1
## #  with 2,188 more rows, and 2 more variables: `Garage Cars` <dbl>,
## #   SalePrice <dbl>
…
